Chapter 10 Tidyverse: colección de paquetes para ciencia de datos | GF0604 Procesamiento de datos geográficos 2022-I
…
El empleo de este modelo de datos es común en todos los paquetes de Tidyverse, lo que posibilita aprender y usar sus funciones con mayor facilidad. Además, permite invertir menos esfuerzo en lidiar con diferentes modelos de datos y así dedicar más tiempo y esfuerzo en los problemas de análisis a resolver.

10.6.0.1 Tibbles

Los datos tidy pueden almacenarse en los tradicionales data frames (tipo data.frame) de R. Adicionalmente, Tidyverse implementa el tipo de datos tibble o tbl. Un tbl también es un data.frame, pero más “liviano” y fácil de usar.

Una de las diferencias entre un data.frame y un tibble es el despliegue de los datos:

# Clase del conjunto de datos penguins
class(penguins)
#> [1] "tbl_df"     "tbl"        "data.frame"
# Impresión del tibble penguins
print(penguins)
#> # A tibble: 344 × 8
#>    species island    bill_length_mm bill_depth_mm
#>    <fct>   <fct>              <dbl>         <dbl>
#>  1 Adelie  Torgersen           39.1          18.7
#>  2 Adelie  Torgersen           39.5          17.4
#>  3 Adelie  Torgersen           40.3          18  
#>  4 Adelie  Torgersen           NA            NA  
#>  5 Adelie  Torgersen           36.7          19.3
#>  6 Adelie  Torgersen           39.3          20.6
#>  7 Adelie  Torgersen           38.9          17.8
#>  8 Adelie  Torgersen           39.2          19.6
#>  9 Adelie  Torgersen           34.1          18.1
#> 10 Adelie  Torgersen           42            20.2
#> # … with 334 more rows, and 4 more variables:
#> #   flipper_length_mm <int>, body_mass_g <int>, sex <fct>,
#> #   year <int>

Como puede verse, la función print() despliega solamente las 10 primeras filas del tibble y una cantidad limitada de columnas, mostrando así una salida más legible. Este comportamiento puede modificarse con los argumentos de print().

# Impresión del tibble penguins con 15 filas y todas las columnas
print(penguins, n=15, width = Inf)
#> # A tibble: 344 × 8
#>    species island    bill_length_mm bill_depth_mm
#>    <fct>   <fct>              <dbl>         <dbl>
#>  1 Adelie  Torgersen           39.1          18.7
#>  2 Adelie  Torgersen           39.5          17.4
#>  3 Adelie  Torgersen           40.3          18  
#>  4 Adelie  Torgersen           NA            NA  
#>  5 Adelie  Torgersen           36.7          19.3
#>  6 Adelie  Torgersen           39.3          20.6
#>  7 Adelie  Torgersen           38.9          17.8
#>  8 Adelie  Torgersen           39.2          19.6
#>  9 Adelie  Torgersen           34.1          18.1
#> 10 Adelie  Torgersen           42            20.2
#> 11 Adelie  Torgersen           37.8          17.1
#> 12 Adelie  Torgersen           37.8          17.3
#> 13 Adelie  Torgersen           41.1          17.6
#> 14 Adelie  Torgersen           38.6          21.2
#> 15 Adelie  Torgersen           34.6          21.1
#>    flipper_length_mm body_mass_g sex     year
#>                <int>       <int> <fct>  <int>
#>  1               181        3750 male    2007
#>  2               186        3800 female  2007
#>  3               195        3250 female  2007
#>  4                NA          NA <NA>    2007
#>  5               193        3450 female  2007
#>  6               190        3650 male    2007
#>  7               181        3625 female  2007
#>  8               195        4675 male    2007
#>  9               193        3475 <NA>    2007
#> 10               190        4250 <NA>    2007
#> 11               186        3300 <NA>    2007
#> 12               180        3700 <NA>    2007
#> 13               182        3200 female  2007
#> 14               191        3800 male    2007
#> 15               198        4400 male    2007
#> # … with 329 more rows

10.7 Pipes

Las funciones de Tidyverse pueden encadenarse a través del operador pipe (%>%) (tubo), para formar pipelines (tuberías). En este contexto, un pipeline consiste de una cadena de procesos conectados de forma tal que la salida de cada proceso de la cadena es la entrada del próximo. Esto permite la comunicación y sincronización entre los procesos y evita la anidación (nesting) de llamados a funciones.

El siguiente ejemplo implementa un pipeline de funciones de Tidyverse:

# Cadena de "pipes" entre funciones de Tidyverse
penguins %>%
  dplyr::filter(species == "Gentoo") %>% # subconjunto de observaciones
  select(species, bill_length_mm, flipper_length_mm) # subconjunto de columnas
#> # A tibble: 124 × 3
#>    species bill_length_mm flipper_length_mm
#>    <fct>            <dbl>             <int>
#>  1 Gentoo            46.1               211
#>  2 Gentoo            50                 230
#>  3 Gentoo            48.7               210
#>  4 Gentoo            50                 218
#>  5 Gentoo            47.6               215
#>  6 Gentoo            46.5               210
#>  7 Gentoo            45.4               211
#>  8 Gentoo            46.7               219
#>  9 Gentoo            43.3               209
#> 10 Gentoo            46.8               215
#> # … with 114 more rows

Una alternativa a los pipes es la anidación de llamados a funciones:

# Llamados anidados a funciones
select(filter(penguins, species == "Gentoo"),
       bill_length_mm,
       flipper_length_mm)
#> # A tibble: 124 × 2
#>    bill_length_mm flipper_length_mm
#>             <dbl>             <int>
#>  1           46.1               211
#>  2           50                 230
#>  3           48.7               210
#>  4           50                 218
#>  5           47.6               215
#>  6           46.5               210
#>  7           45.4               211
#>  8           46.7               219
#>  9           43.3               209
#> 10           46.8               215
#> # … with 114 more rows
…
